CPU/MiniMIPS32.sim/sim_1/behav/xsim/simulate.log
Vivado Simulator 2019.2
Time resolution is 1 ps
 Block Memory Generator module loading initial data...
 Block Memory Generator data initialization complete.
Block Memory Generator module MiniMIPS32_SYS_tb.SoC.inst_rom0.inst.native_mem_module.blk_mem_gen_v8_4_4_inst is using a behavioral model for simulation which will not precisely model memory collision behavior.
 Block Memory Generator module loading initial data...
 Block Memory Generator data initialization complete.
Block Memory Generator module MiniMIPS32_SYS_tb.SoC.data_rom0.inst.native_mem_module.blk_mem_gen_v8_4_4_inst is using a behavioral model for simulation which will not precisely model memory collision behavior.
--------------------------------------------------------------
[                 317]ns
reference: PC = 0xbfc00000, wb_rf_wnum = 0x18, wb_rf_wdata = 0x10100000
--------------------------------------------------------------
--------------------------------------------------------------
[                 397]ns
reference: PC = 0xbfc00010, wb_rf_wnum = 0x01, wb_rf_wdata = 0x10101011
--------------------------------------------------------------
--------------------------------------------------------------
[                 417]ns
reference: PC = 0xbfc00014, wb_rf_wnum = 0x0a, wb_rf_wdata = 0x00000000
--------------------------------------------------------------
--------------------------------------------------------------
[                 497]ns
reference: PC = 0xbfc00024, wb_rf_wnum = 0x02, wb_rf_wdata = 0x00000005
--------------------------------------------------------------
--------------------------------------------------------------
[                 577]ns
reference: PC = 0xbfc00034, wb_rf_wnum = 0x08, wb_rf_wdata = 0x10101016
--------------------------------------------------------------
--------------------------------------------------------------
[                 597]ns
reference: PC = 0xbfc00038, wb_rf_wnum = 0x09, wb_rf_wdata = 0x10101010
--------------------------------------------------------------
--------------------------------------------------------------
[                 617]ns
reference: PC = 0xbfc0003c, wb_rf_wnum = 0x08, wb_rf_wdata = 0x10101016
--------------------------------------------------------------
--------------------------------------------------------------
[                 637]ns
reference: PC = 0xbfc00040, wb_rf_wnum = 0x09, wb_rf_wdata = 0x10101010
--------------------------------------------------------------
--------------------------------------------------------------
[                 657]ns
reference: PC = 0xbfc00044, wb_rf_wnum = 0x08, wb_rf_wdata = 0x1010100c
--------------------------------------------------------------
--------------------------------------------------------------
[                 677]ns
reference: PC = 0xbfc00048, wb_rf_wnum = 0x09, wb_rf_wdata = 0x1010100c
--------------------------------------------------------------
--------------------------------------------------------------
[                 697]ns
reference: PC = 0xbfc0004c, wb_rf_wnum = 0x18, wb_rf_wdata = 0x00000000
--------------------------------------------------------------
--------------------------------------------------------------
[                 777]ns
reference: PC = 0xbfc0005c, wb_rf_wnum = 0x01, wb_rf_wdata = 0x00000001
--------------------------------------------------------------
--------------------------------------------------------------
[                 797]ns
reference: PC = 0xbfc00060, wb_rf_wnum = 0x0a, wb_rf_wdata = 0xffff0000
--------------------------------------------------------------
--------------------------------------------------------------
[                 877]ns
reference: PC = 0xbfc00070, wb_rf_wnum = 0x02, wb_rf_wdata = 0xffffffff
--------------------------------------------------------------
--------------------------------------------------------------
[                 957]ns
reference: PC = 0xbfc00080, wb_rf_wnum = 0x08, wb_rf_wdata = 0x00000000
--------------------------------------------------------------
--------------------------------------------------------------
[                 977]ns
reference: PC = 0xbfc00084, wb_rf_wnum = 0x08, wb_rf_wdata = 0x00000000
--------------------------------------------------------------
--------------------------------------------------------------
[                 997]ns
reference: PC = 0xbfc00088, wb_rf_wnum = 0x08, wb_rf_wdata = 0x00000001
--------------------------------------------------------------
--------------------------------------------------------------
[                1017]ns
reference: PC = 0xbfc0008c, wb_rf_wnum = 0x08, wb_rf_wdata = 0x00000001
--------------------------------------------------------------
--------------------------------------------------------------
[                1037]ns
reference: PC = 0xbfc00090, wb_rf_wnum = 0x18, wb_rf_wdata = 0x7fff0000
--------------------------------------------------------------
--------------------------------------------------------------
[                1117]ns
reference: PC = 0xbfc000a0, wb_rf_wnum = 0x01, wb_rf_wdata = 0x7fffffff
--------------------------------------------------------------
--------------------------------------------------------------
[                1137]ns
reference: PC = 0xbfc000a4, wb_rf_wnum = 0x0a, wb_rf_wdata = 0x7fff0000
--------------------------------------------------------------
--------------------------------------------------------------
[                1217]ns
reference: PC = 0xbfc000b4, wb_rf_wnum = 0x02, wb_rf_wdata = 0x7fffffff
--------------------------------------------------------------
--------------------------------------------------------------
[                1337]ns
reference: PC = 0xbfc000cc, wb_rf_wnum = 0x18, wb_rf_wdata = 0xffff0000
--------------------------------------------------------------
--------------------------------------------------------------
[                1417]ns
reference: PC = 0xbfc000dc, wb_rf_wnum = 0x01, wb_rf_wdata = 0xffffffff
--------------------------------------------------------------
--------------------------------------------------------------
[                1437]ns
reference: PC = 0xbfc000e0, wb_rf_wnum = 0x18, wb_rf_wdata = 0x00000000
--------------------------------------------------------------
--------------------------------------------------------------
[                1517]ns
reference: PC = 0xbfc000f0, wb_rf_wnum = 0x02, wb_rf_wdata = 0x00000000
--------------------------------------------------------------
--------------------------------------------------------------
[                1597]ns
reference: PC = 0xbfc00100, wb_rf_wnum = 0x08, wb_rf_wdata = 0x00000000
--------------------------------------------------------------
--------------------------------------------------------------
[                1617]ns
reference: PC = 0xbfc00104, wb_rf_wnum = 0x08, wb_rf_wdata = 0x00000000
--------------------------------------------------------------
--------------------------------------------------------------
[                1637]ns
reference: PC = 0xbfc00108, wb_rf_wnum = 0x08, wb_rf_wdata = 0xffff0000
--------------------------------------------------------------
--------------------------------------------------------------
[                1657]ns
reference: PC = 0xbfc0010c, wb_rf_wnum = 0x08, wb_rf_wdata = 0x00000000
--------------------------------------------------------------
--------------------------------------------------------------
[                1677]ns
reference: PC = 0xbfc00110, wb_rf_wnum = 0x09, wb_rf_wdata = 0xffffffff
--------------------------------------------------------------
--------------------------------------------------------------
[                1697]ns
reference: PC = 0xbfc00114, wb_rf_wnum = 0x08, wb_rf_wdata = 0xffffffff
--------------------------------------------------------------
--------------------------------------------------------------
[                1717]ns
reference: PC = 0xbfc00118, wb_rf_wnum = 0x08, wb_rf_wdata = 0xffffffff
--------------------------------------------------------------
--------------------------------------------------------------
[                1737]ns
reference: PC = 0xbfc0011c, wb_rf_wnum = 0x09, wb_rf_wdata = 0xffffffff
--------------------------------------------------------------
--------------------------------------------------------------
[                1757]ns
reference: PC = 0xbfc00120, wb_rf_wnum = 0x18, wb_rf_wdata = 0xff120000
--------------------------------------------------------------
--------------------------------------------------------------
[                1837]ns
reference: PC = 0xbfc00130, wb_rf_wnum = 0x01, wb_rf_wdata = 0xff123456
--------------------------------------------------------------
--------------------------------------------------------------
[                1857]ns
reference: PC = 0xbfc00134, wb_rf_wnum = 0x0a, wb_rf_wdata = 0x00000000
--------------------------------------------------------------
--------------------------------------------------------------
[                1937]ns
reference: PC = 0xbfc00144, wb_rf_wnum = 0x02, wb_rf_wdata = 0x00000007
--------------------------------------------------------------
--------------------------------------------------------------
[                2017]ns
reference: PC = 0xbfc00154, wb_rf_wnum = 0x08, wb_rf_wdata = 0x891a2b00
--------------------------------------------------------------
--------------------------------------------------------------
[                2037]ns
reference: PC = 0xbfc00158, wb_rf_wnum = 0x08, wb_rf_wdata = 0x1a2b0000
--------------------------------------------------------------
--------------------------------------------------------------
[                2057]ns
reference: PC = 0xbfc0015c, wb_rf_wnum = 0x08, wb_rf_wdata = 0xfffffe24
--------------------------------------------------------------
--------------------------------------------------------------
[                2077]ns
reference: PC = 0xbfc00160, wb_rf_wnum = 0x08, wb_rf_wdata = 0xfffe2468
--------------------------------------------------------------
--------------------------------------------------------------
[                2097]ns
reference: PC = 0xbfc00164, wb_rf_wnum = 0x08, wb_rf_wdata = 0x0001fe24
--------------------------------------------------------------
--------------------------------------------------------------
[                2117]ns
reference: PC = 0xbfc00168, wb_rf_wnum = 0x08, wb_rf_wdata = 0x01fe2468
--------------------------------------------------------------
--------------------------------------------------------------
[                2137]ns
reference: PC = 0xbfc0016c, wb_rf_wnum = 0x10, wb_rf_wdata = 0x00000000
--------------------------------------------------------------
$stop called at time : 2200 ns : File "E:/MiniMIPS32/CPU/MiniMIPS32.srcs/sim_1/new/MiniMIPS32_SYS_tb.v" Line 32
--------------------------------------------------------------
[                2217]ns
reference: PC = 0xbfc0017c, wb_rf_wnum = 0x10, wb_rf_wdata = 0x00000000
--------------------------------------------------------------
--------------------------------------------------------------
[                2297]ns
reference: PC = 0xbfc0018c, wb_rf_wnum = 0x10, wb_rf_wdata = 0x00000004
--------------------------------------------------------------
--------------------------------------------------------------
[                2377]ns
reference: PC = 0xbfc0019c, wb_rf_wnum = 0x08, wb_rf_wdata = 0x00000044
--------------------------------------------------------------
--------------------------------------------------------------
[                2397]ns
reference: PC = 0xbfc001a0, wb_rf_wnum = 0x08, wb_rf_wdata = 0x00000044
--------------------------------------------------------------
--------------------------------------------------------------
[                2417]ns
reference: PC = 0xbfc001a4, wb_rf_wnum = 0x08, wb_rf_wdata = 0x00004433
--------------------------------------------------------------
--------------------------------------------------------------
[                2437]ns
reference: PC = 0xbfc001a8, wb_rf_wnum = 0x08, wb_rf_wdata = 0x00004433
--------------------------------------------------------------
--------------------------------------------------------------
[                2457]ns
reference: PC = 0xbfc001ac, wb_rf_wnum = 0x08, wb_rf_wdata = 0x44332211
--------------------------------------------------------------
--------------------------------------------------------------
[                2497]ns
reference: PC = 0xbfc001b4, wb_rf_wnum = 0x08, wb_rf_wdata = 0x00000056
--------------------------------------------------------------
--------------------------------------------------------------
[                2537]ns
reference: PC = 0xbfc001bc, wb_rf_wnum = 0x08, wb_rf_wdata = 0x00003456
--------------------------------------------------------------
--------------------------------------------------------------
[                2577]ns
reference: PC = 0xbfc001c4, wb_rf_wnum = 0x08, wb_rf_wdata = 0xff123456
--------------------------------------------------------------
